------------------------------------------------------------------------
r934016 | scripty | 2009-03-02 07:22:36 +0000 (Mon, 02 Mar 2009) | 1 line

SVN_SILENT made messages (.desktop file)
------------------------------------------------------------------------
r935445 | scripty | 2009-03-05 07:51:12 +0000 (Thu, 05 Mar 2009) | 1 line

SVN_SILENT made messages (.desktop file)
------------------------------------------------------------------------
r937020 | lueck | 2009-03-08 21:45:44 +0000 (Sun, 08 Mar 2009) | 1 line

doc backport from trunk
------------------------------------------------------------------------
r938066 | scripty | 2009-03-11 08:39:11 +0000 (Wed, 11 Mar 2009) | 1 line

SVN_SILENT made messages (.desktop file)
------------------------------------------------------------------------
r939534 | scripty | 2009-03-15 07:49:55 +0000 (Sun, 15 Mar 2009) | 1 line

SVN_SILENT made messages (.desktop file)
------------------------------------------------------------------------
r939963 | scripty | 2009-03-16 07:54:54 +0000 (Mon, 16 Mar 2009) | 1 line

SVN_SILENT made messages (.desktop file)
------------------------------------------------------------------------
