------------------------------------------------------------------------
r1170254 | sitter | 2010-08-31 22:22:33 +1200 (Tue, 31 Aug 2010) | 4 lines

Backport r1170253

Use proper cmake syntax (EQUAL, LESS...) when checking whether to build krossruby

------------------------------------------------------------------------
r1173497 | arnorehn | 2010-09-10 02:56:28 +1200 (Fri, 10 Sep 2010) | 3 lines

Improve logic for QFlags.

BUG:249567
------------------------------------------------------------------------
