------------------------------------------------------------------------
r1035488 | segato | 2009-10-15 08:14:42 +0000 (Thu, 15 Oct 2009) | 3 lines

backport r1035487
use setPlainText instead of setText otherwise the html is rendered

------------------------------------------------------------------------
